 15.8MiB/s
 24.4MiB/s
 31.7MiB/s
 17.2MiB/s
 15.8MiB/s
 10.5MiB/s
 35.8MiB/s
 25.2MiB/s
 27.5MiB/s
 18.1MiB/s
 25.7MiB/s
 34.9MiB/s
 26.5MiB/s
 20.1MiB/s
 25.2MiB/s
 32.5MiB/s
 23.6MiB/s
 29.1MiB/s
 26.8MiB/s
 8551KiB/s
 19.9MiB/s
 21.8MiB/s
 25.3MiB/s
 25.6MiB/s
 31.2MiB/s
 28.4MiB/s
 9632KiB/s
 24.1MiB/s
 36.5MiB/s
 19.8MiB/s
 18.6MiB/s
 10.4MiB/s
 11.3MiB/s
